dv/SAR_tb.vcd
$date
	Tue Jun 22 18:32:31 2021
$end
$version
	Icarus Verilog
$end
$timescale
	1ns
$end
$scope module SAR4 $end
$var wire 1 ! clk $end
$var wire 1 " cmp $end
$var wire 1 # done $end
$var wire 4 $ out [3:0] $end
$var wire 1 % rstn $end
$var wire 1 & start $end
$var reg 2 ' nstate [1:0] $end
$var reg 4 ( sar [3:0] $end
$var reg 2 ) state [1:0] $end
$upscope $end
$scope module SAR_tb $end
$var wire 8 * outn [7:0] $end
$var wire 8 + out [7:0] $end
$var wire 1 , done $end
$var wire 1 - cmp $end
$var wire 1 . clkn $end
$var reg 1 / clk $end
$var reg 1 0 rstn $end
$var reg 1 1 start $end
$var real 1 2 Ain $end
$var real 1 3 Vdac $end
$var integer 32 4 i [31:0] $end
$scope module DUV $end
$var wire 1 / clk $end
$var wire 1 . clkn $end
$var wire 1 - cmp $end
$var wire 8 5 out [7:0] $end
$var wire 8 6 outn [7:0] $end
$var wire 1 0 rstn $end
$var wire 1 1 start $end
$var wire 8 7 next [7:0] $end
$var wire 1 , done $end
$var wire 8 8 current [7:0] $end
$var reg 2 9 nstate [1:0] $end
$var reg 8 : result [7:0] $end
$var reg 8 ; shift [7:0] $end
$var reg 2 < state [1:0] $end
$upscope $end
$upscope $end
$enddefinitions $end
#0
$dumpvars
b0 <
bx ;
bx :
b0 9
b11111111 8
b0xxxxxxx 7
bx 6
bx 5
bx 4
r0 3
r0.24 2
01
00
0/
1.
1-
0,
bx +
bx *
bx )
bx (
b0 '
z&
z%
bz $
z#
z"
z!
$end
#5
b1111111 8
0-
r0.9 3
b1000000 7
b1111111 *
b1111111 6
b10000000 ;
b10000000 +
b10000000 5
b10000000 :
0.
1/
#10
1.
0/
#15
0.
1/
#20
1.
0/
#25
0.
1/
#30
1.
0/
#35
0.
1/
#40
1.
0/
#45
0.
1/
#50
1.
0/
#55
0.
1/
#60
1.
0/
#65
0.
1/
#70
1.
0/
#75
0.
1/
#80
1.
0/
#85
0.
1/
#90
1.
0/
#95
0.
1/
#100
1.
0/
#105
0.
10
1/
#110
1.
0/
#115
b1 9
0.
11
1/
#120
1.
0/
#125
b1 <
0.
1/
#130
1.
0/
#135
r0.45 3
b10111111 8
b10111111 *
b10111111 6
b100000 7
b1000000 +
b1000000 5
b1000000 :
b1000000 ;
0.
1/
#140
1.
0/
#145
b11111111 8
1-
r0.225 3
b10000 7
b11011111 *
b11011111 6
b100000 ;
b100000 +
b100000 5
b100000 :
0.
1/
#150
1.
0/
#155
b11101111 8
0-
r0.3375 3
b11001111 *
b11001111 6
b1000 7
b110000 +
b110000 5
b110000 :
b10000 ;
0.
1/
#160
1.
0/
#165
b11110111 8
r0.28125 3
b100 7
b11010111 *
b11010111 6
b1000 ;
b101000 +
b101000 5
b101000 :
0.
1/
#170
1.
0/
#175
r0.253125 3
b11111011 8
b11011011 *
b11011011 6
b10 7
b100100 +
b100100 5
b100100 :
b100 ;
0.
1/
#180
1.
0/
#185
b11111111 8
1-
r0.2390625 3
b1 7
b11011101 *
b11011101 6
b10 ;
b100010 +
b100010 5
b100010 :
0.
1/
#190
1.
0/
#195
b11111110 8
0-
r0.24609375 3
b11011100 *
b11011100 6
b10 9
b0 7
b100011 +
b100011 5
b100011 :
b1 ;
0.
1/
#200
1.
0/
#205
b11111111 8
1-
r0.2390625 3
b11011101 *
b11011101 6
b0 9
b0 ;
b100010 +
b100010 5
b100010 :
1,
b10 <
0.
1/
#210
1.
0/
#215
01
0,
b0 <
0.
1/
#220
1.
0/
#225
b1111111 8
0-
r0.9 3
b1000000 7
b1111111 *
b1111111 6
b10000000 ;
b10000000 +
b10000000 5
b10000000 :
0.
1/
#230
1.
0/
#235
0.
1/
#240
1.
0/
#245
0.
1/
#250
1.
0/
#255
0.
1/
#260
1.
0/
#265
b1 9
0.
11
1/
r0.2632 2
b0 4
#270
1.
0/
#275
b1 <
0.
1/
#280
1.
0/
#285
b10111111 8
r0.45 3
b100000 7
b10111111 *
b10111111 6
b1000000 ;
b1000000 +
b1000000 5
b1000000 :
0.
1/
#290
1.
0/
#295
1-
r0.225 3
b11111111 8
b11011111 *
b11011111 6
b10000 7
b100000 +
b100000 5
b100000 :
b100000 ;
0.
1/
#300
1.
0/
#305
b11101111 8
0-
r0.3375 3
b1000 7
b11001111 *
b11001111 6
b10000 ;
b110000 +
b110000 5
b110000 :
0.
1/
#310
1.
0/
#315
r0.28125 3
b11110111 8
b11010111 *
b11010111 6
b100 7
b101000 +
b101000 5
b101000 :
b1000 ;
0.
1/
#320
1.
0/
#325
b11111111 8
1-
r0.253125 3
b10 7
b11011011 *
b11011011 6
b100 ;
b100100 +
b100100 5
b100100 :
0.
1/
#330
1.
0/
#335
b11111101 8
0-
r0.2671875 3
b11011001 *
b11011001 6
b1 7
b100110 +
b100110 5
b100110 :
b10 ;
0.
1/
#340
1.
0/
#345
b11111111 8
1-
r0.26015625 3
b10 9
b0 7
b11011010 *
b11011010 6
b1 ;
b100101 +
b100101 5
b100101 :
0.
1/
#350
1.
0/
#355
b0 9
b0 ;
1,
b10 <
0.
1/
#360
1.
0/
#365
01
0,
b0 <
0.
1/
#370
1.
0/
#375
b1111111 8
0-
r0.9 3
b1111111 *
b1111111 6
b1000000 7
b10000000 +
b10000000 5
b10000000 :
b10000000 ;
0.
1/
#380
1.
0/
#385
0.
1/
#390
1.
0/
#395
0.
1/
#400
1.
0/
#405
0.
1/
#410
1.
0/
#415
b1 9
0.
11
1/
r0.2864 2
b1 4
#420
1.
0/
#425
b1 <
0.
1/
#430
1.
0/
#435
r0.45 3
b10111111 8
b10111111 *
b10111111 6
b100000 7
b1000000 +
b1000000 5
b1000000 :
b1000000 ;
0.
1/
#440
1.
0/
#445
b11111111 8
1-
r0.225 3
b10000 7
b11011111 *
b11011111 6
b100000 ;
b100000 +
b100000 5
b100000 :
0.
1/
#450
1.
0/
#455
b11101111 8
0-
r0.3375 3
b11001111 *
b11001111 6
b1000 7
b110000 +
b110000 5
b110000 :
b10000 ;
0.
1/
#460
1.
0/
#465
b11111111 8
1-
r0.28125 3
b100 7
b11010111 *
b11010111 6
b1000 ;
b101000 +
b101000 5
b101000 :
0.
1/
#470
1.
0/
#475
b11111011 8
0-
r0.309375 3
b11010011 *
b11010011 6
b10 7
b101100 +
b101100 5
b101100 :
b100 ;
0.
1/
#480
1.
0/
#485
b11111101 8
r0.2953125 3
b1 7
b11010101 *
b11010101 6
b10 ;
b101010 +
b101010 5
b101010 :
0.
1/
#490
1.
0/
#495
r0.28828125 3
b11111110 8
b11010110 *
b11010110 6
b10 9
b0 7
b101001 +
b101001 5
b101001 :
b1 ;
0.
1/
#500
1.
0/
#505
b11111111 8
1-
r0.28125 3
b11010111 *
b11010111 6
b0 9
b0 ;
b101000 +
b101000 5
b101000 :
1,
b10 <
0.
1/
#510
1.
0/
#515
01
0,
b0 <
0.
1/
#520
1.
0/
#525
b1111111 8
0-
r0.9 3
b1000000 7
b1111111 *
b1111111 6
b10000000 ;
b10000000 +
b10000000 5
b10000000 :
0.
1/
#530
1.
0/
#535
0.
1/
#540
1.
0/
#545
0.
1/
#550
1.
0/
#555
0.
1/
#560
1.
0/
#565
b1 9
0.
11
1/
r0.3096 2
b10 4
#570
1.
0/
#575
b1 <
0.
1/
#580
1.
0/
#585
b10111111 8
r0.45 3
b100000 7
b10111111 *
b10111111 6
b1000000 ;
b1000000 +
b1000000 5
b1000000 :
0.
1/
#590
1.
0/
#595
1-
r0.225 3
b11111111 8
b11011111 *
b11011111 6
b10000 7
b100000 +
b100000 5
b100000 :
b100000 ;
0.
1/
#600
1.
0/
#605
b11101111 8
0-
r0.3375 3
b1000 7
b11001111 *
b11001111 6
b10000 ;
b110000 +
b110000 5
b110000 :
0.
1/
#610
1.
0/
#615
1-
r0.28125 3
b11111111 8
b11010111 *
b11010111 6
b100 7
b101000 +
b101000 5
b101000 :
b1000 ;
0.
1/
#620
1.
0/
#625
r0.309375 3
b10 7
b11010011 *
b11010011 6
b100 ;
b101100 +
b101100 5
b101100 :
0.
1/
#630
1.
0/
#635
b11111101 8
0-
r0.3234375 3
b11010001 *
b11010001 6
b1 7
b101110 +
b101110 5
b101110 :
b10 ;
0.
1/
#640
1.
0/
#645
b11111110 8
r0.31640625 3
b10 9
b0 7
b11010010 *
b11010010 6
b1 ;
b101101 +
b101101 5
b101101 :
0.
1/
#650
1.
0/
#655
1-
r0.309375 3
b11111111 8
b11010011 *
b11010011 6
b0 9
b101100 +
b101100 5
b101100 :
b0 ;
1,
b10 <
0.
1/
#660
1.
0/
#665
01
0,
b0 <
0.
1/
#670
1.
0/
#675
b1111111 8
0-
r0.9 3
b1111111 *
b1111111 6
b1000000 7
b10000000 +
b10000000 5
b10000000 :
b10000000 ;
0.
1/
#680
1.
0/
#685
0.
1/
#690
1.
0/
#695
0.
1/
#700
1.
0/
#705
0.
1/
#710
1.
0/
#715
b1 9
0.
11
1/
r0.3328 2
b11 4
#720
1.
0/
#725
b1 <
0.
1/
#730
1.
0/
#735
r0.45 3
b10111111 8
b10111111 *
b10111111 6
b100000 7
b1000000 +
b1000000 5
b1000000 :
b1000000 ;
0.
1/
#740
1.
0/
#745
b11111111 8
1-
r0.225 3
b10000 7
b11011111 *
b11011111 6
b100000 ;
b100000 +
b100000 5
b100000 :
0.
1/
#750
1.
0/
#755
b11101111 8
0-
r0.3375 3
b11001111 *
b11001111 6
b1000 7
b110000 +
b110000 5
b110000 :
b10000 ;
0.
1/
#760
1.
0/
#765
b11111111 8
1-
r0.28125 3
b100 7
b11010111 *
b11010111 6
b1000 ;
b101000 +
b101000 5
b101000 :
0.
1/
#770
1.
0/
#775
r0.309375 3
b11010011 *
b11010011 6
b10 7
b101100 +
b101100 5
b101100 :
b100 ;
0.
1/
#780
1.
0/
#785
r0.3234375 3
b1 7
b11010001 *
b11010001 6
b10 ;
b101110 +
b101110 5
b101110 :
0.
1/
#790
1.
0/
#795
r0.33046875 3
b11010000 *
b11010000 6
b10 9
b0 7
b101111 +
b101111 5
b101111 :
b1 ;
0.
1/
#800
1.
0/
#805
b0 9
b0 ;
1,
b10 <
0.
1/
#810
1.
0/
#815
01
0,
b0 <
0.
1/
#820
1.
0/
#825
b1111111 8
0-
r0.9 3
b1000000 7
b1111111 *
b1111111 6
b10000000 ;
b10000000 +
b10000000 5
b10000000 :
0.
1/
#830
1.
0/
#835
0.
1/
#840
1.
0/
#845
0.
1/
#850
1.
0/
#855
0.
1/
#860
1.
0/
#865
b1 9
0.
11
1/
r0.356 2
b100 4
#870
1.
0/
#875
b1 <
0.
1/
#880
1.
0/
#885
b10111111 8
r0.45 3
b100000 7
b10111111 *
b10111111 6
b1000000 ;
b1000000 +
b1000000 5
b1000000 :
0.
1/
#890
1.
0/
#895
1-
r0.225 3
b11111111 8
b11011111 *
b11011111 6
b10000 7
b100000 +
b100000 5
b100000 :
b100000 ;
0.
1/
#900
1.
0/
#905
r0.3375 3
b1000 7
b11001111 *
b11001111 6
b10000 ;
b110000 +
b110000 5
b110000 :
0.
1/
#910
1.
0/
#915
b11110111 8
0-
r0.39375 3
b11000111 *
b11000111 6
b100 7
b111000 +
b111000 5
b111000 :
b1000 ;
0.
1/
#920
1.
0/
#925
b11111011 8
r0.365625 3
b10 7
b11001011 *
b11001011 6
b100 ;
b110100 +
b110100 5
b110100 :
0.
1/
#930
1.
0/
#935
1-
r0.3515625 3
b11111111 8
b11001101 *
b11001101 6
b1 7
b110010 +
b110010 5
b110010 :
b10 ;
0.
1/
#940
1.
0/
#945
b11111110 8
0-
r0.35859375 3
b10 9
b0 7
b11001100 *
b11001100 6
b1 ;
b110011 +
b110011 5
b110011 :
0.
1/
#950
1.
0/
#955
1-
r0.3515625 3
b11111111 8
b11001101 *
b11001101 6
b0 9
b110010 +
b110010 5
b110010 :
b0 ;
1,
b10 <
0.
1/
#960
1.
0/
#965
01
0,
b0 <
0.
1/
#970
1.
0/
#975
b1111111 8
0-
r0.9 3
b1111111 *
b1111111 6
b1000000 7
b10000000 +
b10000000 5
b10000000 :
b10000000 ;
0.
1/
#980
1.
0/
#985
0.
1/
#990
1.
0/
#995
0.
1/
#1000
1.
0/
#1005
0.
1/
#1010
1.
0/
#1015
b1 9
0.
11
1/
r0.3792 2
b101 4
#1020
1.
0/
#1025
b1 <
0.
1/
#1030
1.
0/
#1035
r0.45 3
b10111111 8
b10111111 *
b10111111 6
b100000 7
b1000000 +
b1000000 5
b1000000 :
b1000000 ;
0.
1/
#1040
1.
0/
#1045
b11111111 8
1-
r0.225 3
b10000 7
b11011111 *
b11011111 6
b100000 ;
b100000 +
b100000 5
b100000 :
0.
1/
#1050
1.
0/
#1055
r0.3375 3
b11001111 *
b11001111 6
b1000 7
b110000 +
b110000 5
b110000 :
b10000 ;
0.
1/
#1060
1.
0/
#1065
b11110111 8
0-
r0.39375 3
b100 7
b11000111 *
b11000111 6
b1000 ;
b111000 +
b111000 5
b111000 :
0.
1/
#1070
1.
0/
#1075
1-
r0.365625 3
b11111111 8
b11001011 *
b11001011 6
b10 7
b110100 +
b110100 5
b110100 :
b100 ;
0.
1/
#1080
1.
0/
#1085
b11111101 8
0-
r0.3796875 3
b1 7
b11001001 *
b11001001 6
b10 ;
b110110 +
b110110 5
b110110 :
0.
1/
#1090
1.
0/
#1095
1-
r0.37265625 3
b11111111 8
b11001010 *
b11001010 6
b10 9
b0 7
b110101 +
b110101 5
b110101 :
b1 ;
0.
1/
#1100
1.
0/
#1105
b0 9
b0 ;
1,
b10 <
0.
1/
#1110
1.
0/
#1115
01
0,
b0 <
0.
1/
#1120
1.
0/
#1125
b1111111 8
0-
r0.9 3
b1000000 7
b1111111 *
b1111111 6
b10000000 ;
b10000000 +
b10000000 5
b10000000 :
0.
1/
#1130
1.
0/
#1135
0.
1/
#1140
1.
0/
#1145
0.
1/
#1150
1.
0/
#1155
0.
1/
#1160
1.
0/
#1165
b1 9
0.
11
1/
r0.4024 2
b110 4
#1170
1.
0/
#1175
b1 <
0.
1/
#1180
1.
0/
#1185
b10111111 8
r0.45 3
b100000 7
b10111111 *
b10111111 6
b1000000 ;
b1000000 +
b1000000 5
b1000000 :
0.
1/
#1190
1.
0/
#1195
1-
r0.225 3
b11111111 8
b11011111 *
b11011111 6
b10000 7
b100000 +
b100000 5
b100000 :
b100000 ;
0.
1/
#1200
1.
0/
#1205
r0.3375 3
b1000 7
b11001111 *
b11001111 6
b10000 ;
b110000 +
b110000 5
b110000 :
0.
1/
#1210
1.
0/
#1215
r0.39375 3
b11000111 *
b11000111 6
b100 7
b111000 +
b111000 5
b111000 :
b1000 ;
0.
1/
#1220
1.
0/
#1225
b11111011 8
0-
r0.421875 3
b10 7
b11000011 *
b11000011 6
b100 ;
b111100 +
b111100 5
b111100 :
0.
1/
#1230
1.
0/
#1235
r0.4078125 3
b11111101 8
b11000101 *
b11000101 6
b1 7
b111010 +
b111010 5
b111010 :
b10 ;
0.
1/
#1240
1.
0/
#1245
b11111111 8
1-
r0.40078125 3
b10 9
b0 7
b11000110 *
b11000110 6
b1 ;
b111001 +
b111001 5
b111001 :
0.
1/
#1250
1.
0/
#1255
b0 9
b0 ;
1,
b10 <
0.
1/
#1260
1.
0/
#1265
01
0,
b0 <
0.
1/
#1270
1.
0/
#1275
b1111111 8
0-
r0.9 3
b1111111 *
b1111111 6
b1000000 7
b10000000 +
b10000000 5
b10000000 :
b10000000 ;
0.
1/
#1280
1.
0/
#1285
0.
1/
#1290
1.
0/
#1295
0.
1/
#1300
1.
0/
#1305
0.
1/
#1310
1.
0/
#1315
b1 9
0.
11
1/
r0.4256 2
b111 4
#1320
1.
0/
#1325
b1 <
0.
1/
#1330
1.
0/
#1335
r0.45 3
b10111111 8
b10111111 *
b10111111 6
b100000 7
b1000000 +
b1000000 5
b1000000 :
b1000000 ;
0.
1/
#1340
1.
0/
#1345
b11111111 8
1-
r0.225 3
b10000 7
b11011111 *
b11011111 6
b100000 ;
b100000 +
b100000 5
b100000 :
0.
1/
#1350
1.
0/
#1355
r0.3375 3
b11001111 *
b11001111 6
b1000 7
b110000 +
b110000 5
b110000 :
b10000 ;
0.
1/
#1360
1.
0/
#1365
r0.39375 3
b100 7
b11000111 *
b11000111 6
b1000 ;
b111000 +
b111000 5
b111000 :
0.
1/
#1370
1.
0/
#1375
r0.421875 3
b11000011 *
b11000011 6
b10 7
b111100 +
b111100 5
b111100 :
b100 ;
0.
1/
#1380
1.
0/
#1385
b11111101 8
0-
r0.4359375 3
b1 7
b11000001 *
b11000001 6
b10 ;
b111110 +
b111110 5
b111110 :
0.
1/
#1390
1.
0/
#1395
r0.42890625 3
b11111110 8
b11000010 *
b11000010 6
b10 9
b0 7
b111101 +
b111101 5
b111101 :
b1 ;
0.
1/
#1400
1.
0/
#1405
b11111111 8
1-
r0.421875 3
b11000011 *
b11000011 6
b0 9
b0 ;
b111100 +
b111100 5
b111100 :
1,
b10 <
0.
1/
#1410
1.
0/
#1415
01
0,
b0 <
0.
1/
#1420
1.
0/
#1425
b1111111 8
0-
r0.9 3
b1000000 7
b1111111 *
b1111111 6
b10000000 ;
b10000000 +
b10000000 5
b10000000 :
0.
1/
#1430
1.
0/
#1435
0.
1/
#1440
1.
0/
#1445
0.
1/
#1450
1.
0/
#1455
0.
1/
#1460
1.
0/
#1465
b1 9
0.
11
1/
r0.4488 2
b1000 4
#1470
1.
0/
#1475
b1 <
0.
1/
#1480
1.
0/
#1485
b10111111 8
r0.45 3
b100000 7
b10111111 *
b10111111 6
b1000000 ;
b1000000 +
b1000000 5
b1000000 :
0.
1/
#1490
1.
0/
#1495
1-
r0.225 3
b11111111 8
b11011111 *
b11011111 6
b10000 7
b100000 +
b100000 5
b100000 :
b100000 ;
0.
1/
#1500
1.
0/
#1505
r0.3375 3
b1000 7
b11001111 *
b11001111 6
b10000 ;
b110000 +
b110000 5
b110000 :
0.
1/
#1510
1.
0/
#1515
r0.39375 3
b11000111 *
b11000111 6
b100 7
b111000 +
b111000 5
b111000 :
b1000 ;
0.
1/
#1520
1.
0/
#1525
r0.421875 3
b10 7
b11000011 *
b11000011 6
b100 ;
b111100 +
b111100 5
b111100 :
0.
1/
#1530
1.
0/
#1535
r0.4359375 3
b11000001 *
b11000001 6
b1 7
b111110 +
b111110 5
b111110 :
b10 ;
0.
1/
#1540
1.
0/
#1545
r0.44296875 3
b10 9
b0 7
b11000000 *
b11000000 6
b1 ;
b111111 +
b111111 5
b111111 :
0.
1/
#1550
1.
0/
#1555
b0 9
b0 ;
1,
b10 <
0.
1/
#1560
1.
0/
#1565
01
0,
b0 <
0.
1/
#1570
1.
0/
#1575
b1111111 8
0-
r0.9 3
b1111111 *
b1111111 6
b1000000 7
b10000000 +
b10000000 5
b10000000 :
b10000000 ;
0.
1/
#1580
1.
0/
#1585
0.
1/
#1590
1.
0/
#1595
0.
1/
#1600
1.
0/
#1605
0.
1/
#1610
1.
0/
#1615
b1 9
0.
11
1/
r0.472 2
b1001 4
#1620
1.
0/
#1625
b1 <
0.
1/
#1630
1.
0/
#1635
1-
r0.45 3
b11111111 8
b10111111 *
b10111111 6
b100000 7
b1000000 +
b1000000 5
b1000000 :
b1000000 ;
0.
1/
#1640
1.
0/
#1645
b11011111 8
0-
r0.675 3
b10000 7
b10011111 *
b10011111 6
b100000 ;
b1100000 +
b1100000 5
b1100000 :
0.
1/
#1650
1.
0/
#1655
r0.5625 3
b11101111 8
b10101111 *
b10101111 6
b1000 7
b1010000 +
b1010000 5
b1010000 :
b10000 ;
0.
1/
#1660
1.
0/
#1665
b11110111 8
r0.50625 3
b100 7
b10110111 *
b10110111 6
b1000 ;
b1001000 +
b1001000 5
b1001000 :
0.
1/
#1670
1.
0/
#1675
r0.478125 3
b11111011 8
b10111011 *
b10111011 6
b10 7
b1000100 +
b1000100 5
b1000100 :
b100 ;
0.
1/
#1680
1.
0/
#1685
b11111111 8
1-
r0.4640625 3
b1 7
b10111101 *
b10111101 6
b10 ;
b1000010 +
b1000010 5
b1000010 :
0.
1/
#1690
1.
0/
#1695
r0.47109375 3
b10111100 *
b10111100 6
b10 9
b0 7
b1000011 +
b1000011 5
b1000011 :
b1 ;
0.
1/
#1700
1.
0/
#1705
b0 9
b0 ;
1,
b10 <
0.
1/
#1710
1.
0/
#1715
01
0,
b0 <
0.
1/
#1720
1.
0/
#1725
b1111111 8
0-
r0.9 3
b1000000 7
b1111111 *
b1111111 6
b10000000 ;
b10000000 +
b10000000 5
b10000000 :
0.
1/
#1730
1.
0/
#1735
0.
1/
#1740
1.
0/
#1745
0.
1/
#1750
1.
0/
#1755
0.
1/
#1760
1.
0/
#1765
b1 9
0.
11
1/
r0.4952 2
b1010 4
#1770
1.
0/
#1775
b1 <
0.
1/
#1780
1.
0/
#1785
b11111111 8
1-
r0.45 3
b100000 7
b10111111 *
b10111111 6
b1000000 ;
b1000000 +
b1000000 5
b1000000 :
0.
1/
#1790
1.
0/
#1795
b11011111 8
0-
r0.675 3
b10011111 *
b10011111 6
b10000 7
b1100000 +
b1100000 5
b1100000 :
b100000 ;
0.
1/
#1800
1.
0/
#1805
b11101111 8
r0.5625 3
b1000 7
b10101111 *
b10101111 6
b10000 ;
b1010000 +
b1010000 5
b1010000 :
0.
1/
#1810
1.
0/
#1815
r0.50625 3
b11110111 8
b10110111 *
b10110111 6
b100 7
b1001000 +
b1001000 5
b1001000 :
b1000 ;
0.
1/
#1820
1.
0/
#1825
b11111111 8
1-
r0.478125 3
b10 7
b10111011 *
b10111011 6
b100 ;
b1000100 +
b1000100 5
b1000100 :
0.
1/
#1830
1.
0/
#1835
r0.4921875 3
b10111001 *
b10111001 6
b1 7
b1000110 +
b1000110 5
b1000110 :
b10 ;
0.
1/
#1840
1.
0/
#1845
b11111110 8
0-
r0.49921875 3
b10 9
b0 7
b10111000 *
b10111000 6
b1 ;
b1000111 +
b1000111 5
b1000111 :
0.
1/
#1850
1.
0/
#1855
1-
r0.4921875 3
b11111111 8
b10111001 *
b10111001 6
b0 9
b1000110 +
b1000110 5
b1000110 :
b0 ;
1,
b10 <
0.
1/
#1860
1.
0/
#1865
01
0,
b0 <
0.
1/
#1870
1.
0/
#1875
b1111111 8
0-
r0.9 3
b1111111 *
b1111111 6
b1000000 7
b10000000 +
b10000000 5
b10000000 :
b10000000 ;
0.
1/
#1880
1.
0/
#1885
0.
1/
#1890
1.
0/
#1895
0.
1/
#1900
1.
0/
#1905
0.
1/
#1910
1.
0/
#1915
b1 9
0.
11
1/
r0.5184 2
b1011 4
#1920
1.
0/
#1925
b1 <
0.
1/
#1930
1.
0/
#1935
1-
r0.45 3
b11111111 8
b10111111 *
b10111111 6
b100000 7
b1000000 +
b1000000 5
b1000000 :
b1000000 ;
0.
1/
#1940
1.
0/
#1945
b11011111 8
0-
r0.675 3
b10000 7
b10011111 *
b10011111 6
b100000 ;
b1100000 +
b1100000 5
b1100000 :
0.
1/
#1950
1.
0/
#1955
r0.5625 3
b11101111 8
b10101111 *
b10101111 6
b1000 7
b1010000 +
b1010000 5
b1010000 :
b10000 ;
0.
1/
#1960
1.
0/
#1965
b11111111 8
1-
r0.50625 3
b100 7
b10110111 *
b10110111 6
b1000 ;
b1001000 +
b1001000 5
b1001000 :
0.
1/
#1970
1.
0/
#1975
b11111011 8
0-
r0.534375 3
b10110011 *
b10110011 6
b10 7
b1001100 +
b1001100 5
b1001100 :
b100 ;
0.
1/
#1980
1.
0/
#1985
b11111101 8
r0.5203125000000001 3
b1 7
b10110101 *
b10110101 6
b10 ;
b1001010 +
b1001010 5
b1001010 :
0.
1/
#1990
1.
0/
#1995
1-
r0.51328125 3
b11111111 8
b10110110 *
b10110110 6
b10 9
b0 7
b1001001 +
b1001001 5
b1001001 :
b1 ;
0.
1/
#2000
1.
0/
#2005
b0 9
b0 ;
1,
b10 <
0.
1/
#2010
1.
0/
#2015
01
0,
b0 <
0.
1/
#2020
1.
0/
#2025
b1111111 8
0-
r0.9 3
b1000000 7
b1111111 *
b1111111 6
b10000000 ;
b10000000 +
b10000000 5
b10000000 :
0.
1/
#2030
1.
0/
#2035
0.
1/
#2040
1.
0/
#2045
0.
1/
#2050
1.
0/
#2055
0.
1/
#2060
1.
0/
#2065
b1 9
0.
11
1/
r0.5416 2
b1100 4
#2070
1.
0/
#2075
b1 <
0.
1/
#2080
1.
0/
#2085
b11111111 8
1-
r0.45 3
b100000 7
b10111111 *
b10111111 6
b1000000 ;
b1000000 +
b1000000 5
b1000000 :
0.
1/
#2090
1.
0/
#2095
b11011111 8
0-
r0.675 3
b10011111 *
b10011111 6
b10000 7
b1100000 +
b1100000 5
b1100000 :
b100000 ;
0.
1/
#2100
1.
0/
#2105
b11101111 8
r0.5625 3
b1000 7
b10101111 *
b10101111 6
b10000 ;
b1010000 +
b1010000 5
b1010000 :
0.
1/
#2110
1.
0/
#2115
1-
r0.50625 3
b11111111 8
b10110111 *
b10110111 6
b100 7
b1001000 +
b1001000 5
b1001000 :
b1000 ;
0.
1/
#2120
1.
0/
#2125
r0.534375 3
b10 7
b10110011 *
b10110011 6
b100 ;
b1001100 +
b1001100 5
b1001100 :
0.
1/
#2130
1.
0/
#2135
b11111101 8
0-
r0.5484375 3
b10110001 *
b10110001 6
b1 7
b1001110 +
b1001110 5
b1001110 :
b10 ;
0.
1/
#2140
1.
0/
#2145
b11111111 8
1-
r0.54140625 3
b10 9
b0 7
b10110010 *
b10110010 6
b1 ;
b1001101 +
b1001101 5
b1001101 :
0.
1/
#2150
1.
0/
#2155
b0 9
b0 ;
1,
b10 <
0.
1/
#2160
1.
0/
#2165
01
0,
b0 <
0.
1/
#2170
1.
0/
#2175
b1111111 8
0-
r0.9 3
b1111111 *
b1111111 6
b1000000 7
b10000000 +
b10000000 5
b10000000 :
b10000000 ;
0.
1/
#2180
1.
0/
#2185
0.
1/
#2190
1.
0/
#2195
0.
1/
#2200
1.
0/
#2205
0.
1/
#2210
1.
0/
#2215
b1 9
0.
11
1/
r0.5648 2
b1101 4
#2220
1.
0/
#2225
b1 <
0.
1/
#2230
1.
0/
#2235
1-
r0.45 3
b11111111 8
b10111111 *
b10111111 6
b100000 7
b1000000 +
b1000000 5
b1000000 :
b1000000 ;
0.
1/
#2240
1.
0/
#2245
b11011111 8
0-
r0.675 3
b10000 7
b10011111 *
b10011111 6
b100000 ;
b1100000 +
b1100000 5
b1100000 :
0.
1/
#2250
1.
0/
#2255
1-
r0.5625 3
b11111111 8
b10101111 *
b10101111 6
b1000 7
b1010000 +
b1010000 5
b1010000 :
b10000 ;
0.
1/
#2260
1.
0/
#2265
b11110111 8
0-
r0.61875 3
b100 7
b10100111 *
b10100111 6
b1000 ;
b1011000 +
b1011000 5
b1011000 :
0.
1/
#2270
1.
0/
#2275
r0.5906250000000001 3
b11111011 8
b10101011 *
b10101011 6
b10 7
b1010100 +
b1010100 5
b1010100 :
b100 ;
0.
1/
#2280
1.
0/
#2285
b11111101 8
r0.5765625 3
b1 7
b10101101 *
b10101101 6
b10 ;
b1010010 +
b1010010 5
b1010010 :
0.
1/
#2290
1.
0/
#2295
r0.56953125 3
b11111110 8
b10101110 *
b10101110 6
b10 9
b0 7
b1010001 +
b1010001 5
b1010001 :
b1 ;
0.
1/
#2300
1.
0/
#2305
b11111111 8
1-
r0.5625 3
b10101111 *
b10101111 6
b0 9
b0 ;
b1010000 +
b1010000 5
b1010000 :
1,
b10 <
0.
1/
#2310
1.
0/
#2315
01
0,
b0 <
0.
1/
#2320
1.
0/
#2325
b1111111 8
0-
r0.9 3
b1000000 7
b1111111 *
b1111111 6
b10000000 ;
b10000000 +
b10000000 5
b10000000 :
0.
1/
#2330
1.
0/
#2335
0.
1/
#2340
1.
0/
#2345
0.
1/
#2350
1.
0/
#2355
0.
1/
#2360
1.
0/
#2365
b1 9
0.
11
1/
r0.588 2
b1110 4
#2370
1.
0/
#2375
b1 <
0.
1/
#2380
1.
0/
#2385
b11111111 8
1-
r0.45 3
b100000 7
b10111111 *
b10111111 6
b1000000 ;
b1000000 +
b1000000 5
b1000000 :
0.
1/
#2390
1.
0/
#2395
b11011111 8
0-
r0.675 3
b10011111 *
b10011111 6
b10000 7
b1100000 +
b1100000 5
b1100000 :
b100000 ;
0.
1/
#2400
1.
0/
#2405
b11111111 8
1-
r0.5625 3
b1000 7
b10101111 *
b10101111 6
b10000 ;
b1010000 +
b1010000 5
b1010000 :
0.
1/
#2410
1.
0/
#2415
b11110111 8
0-
r0.61875 3
b10100111 *
b10100111 6
b100 7
b1011000 +
b1011000 5
b1011000 :
b1000 ;
0.
1/
#2420
1.
0/
#2425
b11111011 8
r0.5906250000000001 3
b10 7
b10101011 *
b10101011 6
b100 ;
b1010100 +
b1010100 5
b1010100 :
0.
1/
#2430
1.
0/
#2435
1-
r0.5765625 3
b11111111 8
b10101101 *
b10101101 6
b1 7
b1010010 +
b1010010 5
b1010010 :
b10 ;
0.
1/
#2440
1.
0/
#2445
r0.58359375 3
b10 9
b0 7
b10101100 *
b10101100 6
b1 ;
b1010011 +
b1010011 5
b1010011 :
0.
1/
#2450
1.
0/
#2455
b0 9
b0 ;
1,
b10 <
0.
1/
#2460
1.
0/
#2465
01
0,
b0 <
0.
1/
#2470
1.
0/
#2475
b1111111 8
0-
r0.9 3
b1111111 *
b1111111 6
b1000000 7
b10000000 +
b10000000 5
b10000000 :
b10000000 ;
0.
1/
#2480
1.
0/
#2485
0.
1/
#2490
1.
0/
#2495
0.
1/
#2500
1.
0/
#2505
0.
1/
#2510
1.
0/
#2515
b1 9
0.
11
1/
r0.6112 2
b1111 4
#2520
1.
0/
#2525
b1 <
0.
1/
#2530
1.
0/
